lab1/lab1_fsm/lab1_fsm.vcd
$date
	Thu Oct 07 23:42:08 2021
$end
$version
	ModelSim Version 2020.1
$end
$timescale
	1ps
$end

$scope module lab1_fsm_tb $end

$scope module dut $end
$var wire 1 ! Mult1_ao_res [0] $end
$var wire 1 " Mult1_ao_res [1] $end
$var wire 1 # Mult1_ao_res [2] $end
$var wire 1 $ Mult1_ao_res [3] $end
$var wire 1 % Mult1_aMult0_a26 $end
$var wire 1 & Mult1_aMult0_a27 $end
$var wire 1 ' Mult1_aMult0_a28 $end
$var wire 1 ( Mult1_aMult0_a29 $end
$var wire 1 ) Mult1_aMult0_a30 $end
$var wire 1 * Mult1_aMult0_a31 $end
$var wire 1 + Mult1_aMult0_a32 $end
$var wire 1 , Mult1_aMult0_a33 $end
$var wire 1 - Mult1_aMult0_a34 $end
$var wire 1 . Mult1_aMult0_a35 $end
$var wire 1 / Mult1_aMult0_a36 $end
$var wire 1 0 Mult1_aMult0_a37 $end
$var wire 1 1 Mult1_aMult0_a38 $end
$var wire 1 2 Mult1_aMult0_a39 $end
$var wire 1 3 Mult1_aMult0_a40 $end
$var wire 1 4 Mult1_aMult0_a41 $end
$var wire 1 5 Mult1_ao_res [4] $end
$var wire 1 6 Mult1_ao_res [5] $end
$var wire 1 7 Mult1_ao_res [6] $end
$var wire 1 8 Mult1_ao_res [7] $end
$var wire 1 9 Mult1_ao_res [8] $end
$var wire 1 : Mult1_ao_res [9] $end
$var wire 1 ; Mult1_ao_res [10] $end
$var wire 1 < Mult1_ao_res [11] $end
$var wire 1 = Mult1_ao_res [12] $end
$var wire 1 > Mult1_ao_res [13] $end
$var wire 1 ? Mult1_ao_res [14] $end
$var wire 1 @ Mult1_ao_res [15] $end
$var wire 1 A Mult1_ao_res [16] $end
$var wire 1 B Mult1_ao_res [17] $end
$var wire 1 C Mult1_ao_res [18] $end
$var wire 1 D Mult1_ao_res [19] $end
$var wire 1 E Mult1_ao_res [20] $end
$var wire 1 F Mult1_ao_res [21] $end
$var wire 1 G Mult1_ao_res [22] $end
$var wire 1 H Mult1_ao_res [23] $end
$var wire 1 I Mult1_ao_res [24] $end
$var wire 1 J Mult1_ao_res [25] $end
$var wire 1 K Mult1_ao_res [26] $end
$var wire 1 L Mult1_ao_res [27] $end
$var wire 1 M Mult1_ao_res [28] $end
$var wire 1 N Mult1_ao_res [29] $end
$var wire 1 O Mult1_ao_res [30] $end
$var wire 1 P Mult1_ao_res [31] $end
$var wire 1 Q Addr1_aAdd0_a1_sumout $end
$var wire 1 R Addr1_aAdd0_a2 $end
$var wire 1 S Addr1_aAdd0_a5_sumout $end
$var wire 1 T Addr1_aAdd0_a6 $end
$var wire 1 U Addr1_aAdd0_a9_sumout $end
$var wire 1 V Addr1_aAdd0_a10 $end
$var wire 1 W Addr1_aAdd0_a13_sumout $end
$var wire 1 X Addr1_aAdd0_a14 $end
$var wire 1 Y Addr1_aAdd0_a17_sumout $end
$var wire 1 Z Addr1_aAdd0_a18 $end
$var wire 1 [ Addr1_aAdd0_a21_sumout $end
$var wire 1 \ Addr1_aAdd0_a22 $end
$var wire 1 ] Addr1_aAdd0_a25_sumout $end
$var wire 1 ^ Addr1_aAdd0_a26 $end
$var wire 1 _ Addr1_aAdd0_a29_sumout $end
$var wire 1 ` Addr1_aAdd0_a30 $end
$var wire 1 a Addr1_aAdd0_a33_sumout $end
$var wire 1 b Addr1_aAdd0_a34 $end
$var wire 1 c Addr1_aAdd0_a37_sumout $end
$var wire 1 d Addr1_aAdd0_a38 $end
$var wire 1 e Addr1_aAdd0_a41_sumout $end
$var wire 1 f Addr1_aAdd0_a42 $end
$var wire 1 g Addr1_aAdd0_a45_sumout $end
$var wire 1 h Addr1_aAdd0_a46 $end
$var wire 1 i Addr1_aAdd0_a49_sumout $end
$var wire 1 j Addr1_aAdd0_a50 $end
$var wire 1 k Addr1_aAdd0_a53_sumout $end
$var wire 1 l Addr1_aAdd0_a54 $end
$var wire 1 m Addr1_aAdd0_a57_sumout $end
$var wire 1 n Addr1_aAdd0_a58 $end
$var wire 1 o Addr1_aAdd0_a61_sumout $end
$var wire 1 p Addr1_aAdd0_a62 $end
$var wire 1 q Addr1_aAdd0_a65_sumout $end
$var wire 1 r Addr1_aAdd0_a66 $end
$var wire 1 s Addr1_aAdd0_a69_sumout $end
$var wire 1 t Addr1_aAdd0_a70 $end
$var wire 1 u Addr1_aAdd0_a73_sumout $end
$var wire 1 v Addr1_aAdd0_a74 $end
$var wire 1 w Addr1_aAdd0_a77_sumout $end
$var wire 1 x fsm0_acurrentState_aoutput_y_aq $end
$var wire 1 y fsm0_acurrentState_ainput_x_aq $end
$var wire 1 z addr_result [0] $end
$var wire 1 { addr_result [1] $end
$var wire 1 | addr_result [2] $end
$var wire 1 } addr_result [3] $end
$var wire 1 ~ addr_result [4] $end
$var wire 1 !! addr_result [5] $end
$var wire 1 "! addr_result [6] $end
$var wire 1 #! addr_result [7] $end
$var wire 1 $! addr_result [8] $end
$var wire 1 %! addr_result [9] $end
$var wire 1 &! addr_result [10] $end
$var wire 1 '! addr_result [11] $end
$var wire 1 (! addr_result [12] $end
$var wire 1 )! addr_result [13] $end
$var wire 1 *! addr_result [14] $end
$var wire 1 +! addr_result [15] $end
$var wire 1 ,! addr_result [16] $end
$var wire 1 -! addr_result [17] $end
$var wire 1 .! addr_result [18] $end
$var wire 1 /! addr_result [19] $end
$var wire 1 0! addr_result [20] $end
$var wire 1 1! addr_result [21] $end
$var wire 1 2! addr_result [22] $end
$var wire 1 3! addr_result [23] $end
$var wire 1 4! addr_result [24] $end
$var wire 1 5! addr_result [25] $end
$var wire 1 6! addr_result [26] $end
$var wire 1 7! addr_result [27] $end
$var wire 1 8! addr_result [28] $end
$var wire 1 9! addr_result [29] $end
$var wire 1 :! addr_result [30] $end
$var wire 1 ;! addr_result [31] $end
$var wire 1 <! fsm0_acurrentState_acompute_4_aq $end
$var wire 1 =! fsm0_aSelector1_a0_combout $end
$var wire 1 >! fsm0_aSelector0_a0_combout $end
$var wire 1 ?! fsm0_aWideOr2_a0_combout $end
$var wire 1 @! fsm0_acurrentState_acompute_3_aq $end
$var wire 1 A! fsm0_acurrentState_acompute_0_aq $end
$var wire 1 B! mux2x1_mmux_aout_a0_a_a0_combout $end
$var wire 1 C! mux2x1_mmux_aout_a1_a_a1_combout $end
$var wire 1 D! mux2x1_mmux_aout_a2_a_a2_combout $end
$var wire 1 E! mux2x1_mmux_aout_a3_a_a3_combout $end
$var wire 1 F! mux2x1_mmux_aout_a4_a_a4_combout $end
$var wire 1 G! mux2x1_mmux_aout_a5_a_a5_combout $end
$var wire 1 H! mux2x1_mmux_aout_a6_a_a6_combout $end
$var wire 1 I! mux2x1_mmux_aout_a7_a_a7_combout $end
$var wire 1 J! mux2x1_mmux_aout_a8_a_a8_combout $end
$var wire 1 K! mux2x1_mmux_aout_a9_a_a9_combout $end
$var wire 1 L! mux2x1_mmux_aout_a10_a_a10_combout $end
$var wire 1 M! mux2x1_mmux_aout_a11_a_a11_combout $end
$var wire 1 N! mux2x1_mmux_aout_a12_a_a12_combout $end
$var wire 1 O! mux2x1_mmux_aout_a13_a_a13_combout $end
$var wire 1 P! mux2x1_mmux_aout_a14_a_a14_combout $end
$var wire 1 Q! mux2x1_mmux_aout_a15_a_a15_combout $end
$var wire 1 R! mux2x1_mmux_aout_a16_a_a16_combout $end
$var wire 1 S! mux2x1_mmux_aout_a17_a_a17_combout $end
$var wire 1 T! mux2x1_mmux_aout_a18_a_a18_combout $end
$var wire 1 U! mux2x1_mmux_aout_a19_a_a19_combout $end
$var wire 1 V! mux2x1_mmux_aout_a20_a_a20_combout $end
$var wire 1 W! mux2x1_mmux_aout_a21_a_a21_combout $end
$var wire 1 X! mux2x1_mmux_aout_a22_a_a22_combout $end
$var wire 1 Y! mux2x1_mmux_aout_a23_a_a23_combout $end
$var wire 1 Z! mux2x1_mmux_aout_a24_a_a24_combout $end
$var wire 1 [! mux2x1_mmux_aout_a25_a_a25_combout $end
$var wire 1 \! mux2x1_mmux_aout_a26_a_a26_combout $end
$var wire 1 ]! mux2x1_mmux_aout_a27_a_a27_combout $end
$var wire 1 ^! mux2x1_mmux_aout_a28_a_a28_combout $end
$var wire 1 _! mux2x1_mmux_aout_a29_a_a29_combout $end
$var wire 1 `! mux2x1_mmux_aout_a30_a_a30_combout $end
$var wire 1 a! mux2x1_mmux_aout_a31_a_a31_combout $end
$var wire 1 b! fsm0_acurrentState_acompute_2_aq $end
$var wire 1 c! fsm0_acurrentState_acompute_1_aq $end
$var wire 1 d! fsm0_anextState_acompute_0_a0_combout $end
$var wire 1 e! clk_ainput_o $end
$var wire 1 f! clk_ainputCLKENA0_outclk $end
$var wire 1 g! addr_result_a15_a_aDUPLICATE_q $end
$var wire 1 h! addr_result_a16_a_aDUPLICATE_q $end
$var wire 1 i! addr_result_a17_a_aDUPLICATE_q $end
$var wire 1 j! fsm0_acurrentState_acompute_3_aDUPLICATE_q $end
$var wire 1 k! o_valid_aoutput1_o $end
$var wire 1 l! o_ready_aoutput1_o $end
$var wire 1 m! o_y_a0_a_aoutput1_o $end
$var wire 1 n! o_y_a1_a_aoutput1_o $end
$var wire 1 o! o_y_a2_a_aoutput1_o $end
$var wire 1 p! o_y_a3_a_aoutput1_o $end
$var wire 1 q! o_y_a4_a_aoutput1_o $end
$var wire 1 r! o_y_a5_a_aoutput1_o $end
$var wire 1 s! o_y_a6_a_aoutput1_o $end
$var wire 1 t! o_y_a7_a_aoutput1_o $end
$var wire 1 u! o_y_a8_a_aoutput1_o $end
$var wire 1 v! o_y_a9_a_aoutput1_o $end
$var wire 1 w! o_y_a10_a_aoutput1_o $end
$var wire 1 x! o_y_a11_a_aoutput1_o $end
$var wire 1 y! o_y_a12_a_aoutput1_o $end
$var wire 1 z! o_y_a13_a_aoutput1_o $end
$var wire 1 {! o_y_a14_a_aoutput1_o $end
$var wire 1 |! o_y_a15_a_aoutput1_o $end
$var wire 1 }! o_y_a16_a_aoutput1_o $end
$var wire 1 ~! o_y_a17_a_aoutput1_o $end
$var wire 1 !" o_y_a18_a_aoutput1_o $end
$var wire 1 "" o_y_a19_a_aoutput1_o $end
$var wire 1 #" o_y_a20_a_aoutput1_o $end
$var wire 1 $" o_y_a21_a_aoutput1_o $end
$var wire 1 %" o_y_a22_a_aoutput1_o $end
$var wire 1 &" o_y_a23_a_aoutput1_o $end
$var wire 1 '" o_y_a24_a_aoutput1_o $end
$var wire 1 (" o_y_a25_a_aoutput1_o $end
$var wire 1 )" o_y_a26_a_aoutput1_o $end
$var wire 1 *" o_y_a27_a_aoutput1_o $end
$var wire 1 +" o_y_a28_a_aoutput1_o $end
$var wire 1 ," o_y_a29_a_aoutput1_o $end
$var wire 1 -" o_y_a30_a_aoutput1_o $end
$var wire 1 ." o_y_a31_a_aoutput1_o $end
$var wire 1 /" i_ready_ainput3 $end
$var wire 1 0" reset_ainput3 $end
$var wire 1 1" i_valid_ainput3 $end
$var wire 1 2" i_x_a0_a_ainput3 $end
$var wire 1 3" i_x_a1_a_ainput3 $end
$var wire 1 4" i_x_a2_a_ainput3 $end
$var wire 1 5" i_x_a3_a_ainput3 $end
$var wire 1 6" i_x_a4_a_ainput3 $end
$var wire 1 7" i_x_a5_a_ainput3 $end
$var wire 1 8" i_x_a6_a_ainput3 $end
$var wire 1 9" i_x_a7_a_ainput3 $end
$var wire 1 :" i_x_a8_a_ainput3 $end
$var wire 1 ;" i_x_a9_a_ainput3 $end
$var wire 1 <" i_x_a10_a_ainput3 $end
$var wire 1 =" i_x_a11_a_ainput3 $end
$var wire 1 >" i_x_a12_a_ainput3 $end
$var wire 1 ?" i_x_a13_a_ainput3 $end
$var wire 1 @" i_x_a14_a_ainput3 $end
$var wire 1 A" i_x_a15_a_ainput3 $end
$upscope $end
$upscope $end
$enddefinitions $end
#0
$dumpvars
0k!
1l!
0m!
0n!
0o!
0p!
0q!
0r!
0s!
0t!
0u!
0v!
0w!
0x!
0y!
0z!
0{!
0|!
0}!
0~!
0!"
0""
0#"
0$"
0%"
0&"
0'"
0("
0)"
0*"
0+"
0,"
0-"
0."
1e!
1f!
1/"
01"
0>!
10"
0y
0d!
0A!
0c!
0b!
0j!
0<!
0=!
0x
x2"
x3"
x4"
x5"
x6"
x7"
x8"
x9"
x:"
x;"
x<"
x="
x>"
x?"
x@"
xA"
0B!
0@!
02
03
04
0R
0T
0V
0X
0Z
0[
0?!
0i!
0S!
01
1Y
0R!
00
0W
0Q!
0/
1U
1P!
0.
0S
0O!
0-
1Q
0N!
0,
0M!
0+
0L!
0*
0K!
0)
0J!
0(
0I!
0'
0H!
0&
0G!
0%
0\
0^
0`
0b
0d
0f
0h
0j
0l
0n
0p
0r
0t
0v
0w
0a!
0u
0`!
0s
0_!
0q
0^!
0o
0]!
0m
0\!
0k
0[!
0i
0Z!
0g
0Y!
0e
0X!
0c
0W!
1a
0V!
0_
0U!
1]
1T!
0F!
0E!
0D!
0C!
0g!
0h!
0!
0"
0#
0$
05
06
07
08
09
0:
0;
0<
0=
0>
0?
0@
0A
0B
0C
0D
0E
0F
0G
0H
0I
0J
0K
0L
0M
0N
0O
0P
0z
0{
0|
0}
0~
0!!
0"!
0#!
0$!
0%!
0&!
0'!
0(!
0)!
0*!
0+!
0,!
0-!
0.!
0/!
00!
01!
02!
03!
04!
05!
06!
07!
08!
09!
0:!
0;!
$end
#12000
0e!
0f!
#24000
1e!
1f!
00"
x4
x3
x2
x1
x0
x/
x.
x-
x,
x+
x*
x)
x(
x'
x&
x%
x$
x#
x"
x!
xP
xO
xN
xM
xL
xK
xJ
xI
xH
xG
xF
xE
xD
xC
xB
xA
x@
x?
x>
x=
x<
x;
x:
x9
x8
x7
x6
x5
xR
xV
xZ
x^
xb
xQ
xS
xU
xW
xY
x[
x]
x_
xa
xc
xe
xg
xi
xk
xm
xo
xq
xs
xu
xw
xT
xX
x\
x`
xd
xf
xh
xj
xl
xn
xp
xr
xt
xv
#30000
02"
13"
04"
05"
06"
07"
08"
09"
0:"
0;"
0<"
0="
0>"
0?"
0@"
0A"
#36000
0e!
0f!
#42000
11"
1d!
1>!
#48000
1e!
1f!
1A!
1y
04
03
02
01
00
0/
0.
0-
0,
0+
0*
0)
0(
0'
0&
0%
0$
0#
1"
0!
0P
0O
0N
0M
0L
0K
0J
0I
0H
0G
0F
0E
0D
0C
0B
0A
0@
0?
0>
0=
0<
0;
0:
09
08
07
16
05
1?!
0d!
0R
0T
0X
0\
0`
0d
0f
0h
0j
0l
0n
0p
0r
0t
0v
0l!
1Q
0V
0Z
0^
0b
0S
1U
1Y
1]
1a
0e
0g
0i
0k
0m
0o
0q
0s
0u
0w
0W
0[
0_
0c
#54000
03"
1<"
1="
1>"
#60000
0e!
0f!
#66000
12"
14"
15"
0<"
0="
0>"
01"
#72000
1e!
1f!
1,!
1c!
0A!
1h!
1{
1.!
10!
1!!
1(!
1*!
1C!
1V!
1G!
1N!
1R!
1}!
1n!
1!"
1#"
1r!
1y!
1{!
1e
18
1$
#84000
0e!
0f!
#96000
1e!
1f!
1b!
0c!
1}
12!
1#!
1I!
1X!
1E!
1p!
1%"
1t!
1i
0e
0a
0]
0Y
0U
0Q
1:
#108000
0e!
0f!
#120000
1e!
1f!
0,!
1@!
1j!
0b!
0h!
0.!
00!
02!
14!
1%!
0(!
0*!
0R!
0P!
0N!
1K!
1Z!
0X!
0V!
0T!
0}!
0!"
0#"
0%"
1'"
1v!
0y!
0{!
1k
0i
1<
0:
08
06
0$
0"
#132000
0e!
0f!
#144000
1e!
1f!
0@!
1<!
0j!
0{
0}
04!
15!
0!!
0#!
0%!
1'!
1=!
1M!
0K!
0I!
0G!
1[!
0Z!
0E!
0C!
0n!
0p!
0'"
1("
0r!
0t!
0v!
1x!
1=
0<
1Q
#156000
0e!
0f!
#168000
1e!
1f!
0<!
0'!
1(!
1x
1R
0=!
1T!
0[!
0M!
1P!
0?!
0x!
1y!
1k!
0k
1a
1]
1Y
1U
0Q
0>!
0=
16
1"
0R
1S
1Q
0S
#180000
0e!
0f!
#192000
1e!
1f!
0y
0x
1l!
0k!
#204000
0e!
0f!
#210000
02"
04"
05"
1<"
1="
1>"
11"
1d!
1>!
#216000
1e!
1f!
1A!
1y
1-
1,
1+
0"
1A
1@
1?
06
1=
1<
1;
1?!
0d!
1V
1Z
1R
0l!
0U
1W
0Y
0Q
1X
0W
1[
1S
1Y
#222000
13"
16"
17"
18"
1:"
1;"
0>"
1?"
1@"
#228000
0e!
0f!
#234000
12"
03"
14"
15"
06"
07"
08"
0:"
0;"
0<"
0="
0?"
0@"
01"
#240000
1e!
1f!
1,!
1i!
1c!
0A!
1-!
1h!
1.!
10!
05!
1&!
1'!
0(!
1)!
1V!
1L!
1M!
1O!
0P!
1R!
1S!
1~!
1}!
1!"
1#"
0("
1w!
1x!
0y!
1z!
1e
1D
0A
11
1/
1.
0-
0,
0+
1*
1)
1'
1B
0@
0?
1>
0=
0<
0;
1:
19
17
0R
1T
0V
0X
1\
0Y
1_
1Q
0S
1U
1W
0[
0T
1V
0Z
1^
1S
0U
0W
1Y
0]
0V
0\
1`
1U
1W
1[
0_
0^
1b
0W
1]
0a
0`
1_
1c
0b
1a
0c
#252000
0e!
0f!
#264000
1e!
1f!
1b!
0c!
1/!
12!
1"!
1$!
1%!
0&!
0'!
1(!
1*!
1P!
1N!
0M!
0L!
1K!
1J!
1H!
1X!
1U!
1""
1%"
1s!
1u!
1v!
0w!
0x!
1y!
1{!
1i
0e
0a
0]
0Y
0U
0Q
1F
0B
1A
1@
10
0/
0.
0)
1&
1$
1#
1?
0>
09
16
1W
1Y
0[
1c
0S
1U
#276000
0e!
0f!
#288000
1e!
1f!
1+!
0i!
1@!
1j!
0b!
0-!
1g!
1|
1}
0.!
00!
11!
02!
14!
1!!
0$!
0(!
0)!
0S!
1Q!
0O!
0N!
0J!
1G!
1Z!
0X!
1W!
0V!
0T!
1E!
1D!
0~!
1|!
1o!
1p!
0!"
0#"
1$"
0%"
1'"
1r!
0u!
0y!
0z!
1k
0i
1H
0F
0D
1B
0@
0?
01
1/
1+
0*
1)
0'
0&
1"
1!
0A
1?
1;
0:
19
07
06
0W
1[
0_
0c
1g
0Y
#300000
0e!
0f!
#312000
1e!
1f!
0+!
0,!
1i!
0@!
1<!
0j!
1-!
0h!
0g!
1z
1{
0/!
01!
13!
04!
15!
0!!
0"!
1$!
0%!
1&!
1=!
1S!
0R!
0Q!
1L!
0K!
1J!
0H!
0G!
1[!
0Z!
1Y!
0W!
0U!
1C!
1B!
1~!
0}!
0|!
1m!
1n!
0""
0$"
1&"
0'"
1("
0r!
0s!
1u!
0v!
1w!
1I
0H
1E
1D
0B
1@
1.
1-
1,
1*
0)
1&
1%
0$
0!
1>
1=
1<
1:
09
16
15
1W
0[
1_
1a
0g
1i
1Q
1S
#324000
0e!
0f!
#336000
1e!
1f!
1+!
0i!
0<!
0-!
1g!
0z
0}
1~
1/!
10!
03!
14!
1!!
0$!
1%!
1'!
1(!
1)!
1x
1b
1V
1R
0=!
0S!
0C!
0D!
0E!
1T!
0Y!
0[!
0J!
0L!
0?!
0B!
0~!
1|!
0m!
0p!
1q!
1""
1#"
0&"
1'"
1r!
0u!
1v!
1x!
1y!
1z!
1k!
0k
0a
1]
1Y
0U
0Q
0>!
0I
0E
0D
1B
0?
00
0/
0.
0*
0&
0%
0#
0"
0B
1A
1?
0>
0:
06
05
1X
0b
1Z
1c
0W
0_
1a
0i
0Y
1Y
0c
1[
#348000
0e!
0f!
#360000
1e!
1f!
0y
0x
1l!
0k!
#372000
0e!
0f!
#378000
02"
13"
04"
05"
16"
17"
18"
1:"
1;"
1<"
1="
1?"
1@"
11"
1d!
1>!
#384000
1e!
1f!
1A!
1y
1/
1.
0-
1*
1)
1'
1&
1%
1"
1C
1B
0@
0?
0<
0;
1:
19
16
1?
1>
0=
1;
09
18
06
15
1?!
0d!
0X
1\
1^
0R
1T
0l!
1W
0[
0]
1Q
0S
0T
0Y
1]
1_
1S
1U
0U
#390000
12"
03"
15"
08"
0<"
0?"
0@"
#396000
0e!
0f!
#402000
14"
06"
07"
0:"
0;"
0="
01"
#408000
1e!
1f!
1c!
0A!
0|
1.!
04!
05!
0!!
1#!
0'!
0*!
1C!
1F!
1U!
1V!
1I!
1K!
1L!
1N!
1O!
0P!
1Q!
0o!
1!"
0'"
0("
0r!
1t!
0x!
0{!
1e
1F
1E
0C
0B
0?
1=
0;
0:
19
08
17
11
0/
1-
0*
1(
0%
1$
1@
1?
1<
1;
1:
18
05
1R
0\
1b
1X
0Q
1[
0]
0a
1c
0W
1T
0^
1d
0S
1]
0c
1Y
1f
1U
0_
0e
1g
#420000
0e!
0f!
#432000
1e!
1f!
0+!
1,!
1i!
1b!
0c!
1-!
1h!
0g!
1}
0~
0/!
00!
13!
1"!
1$!
1'!
0(!
0)!
1*!
0f
0b
0R
1S!
1R!
0Q!
1P!
0O!
0N!
1M!
1J!
1H!
1Y!
0V!
0U!
0F!
1E!
1~!
1}!
0|!
1p!
0q!
0""
0#"
1&"
1s!
1u!
1x!
0y!
0z!
1{!
1i
1e
1a
0]
0Y
0U
1Q
1H
1G
0E
1C
1B
0@
0?
0>
0;
0:
08
07
13
10
1/
0.
0-
0,
0)
0(
0&
0"
1D
0C
1@
1;
1:
17
16
0d
0T
0V
1\
1f
1c
1U
0[
0a
0e
1_
0f
0X
1h
1e
0U
1W
1]
0g
0h
0Z
1j
1g
1Y
0i
0j
0\
1i
1[
1k
0k
0]
#444000
0e!
0f!
#456000
1e!
1f!
1+!
1@!
1j!
0b!
1g!
0{
0.!
1/!
11!
12!
14!
1!!
0#!
1(!
0*!
1Q!
0P!
1N!
0I!
1G!
1Z!
1X!
1W!
1U!
0T!
0C!
1|!
0n!
0!"
1""
1$"
1%"
1'"
1r!
0t!
1y!
0{!
1k
0i
1J
1I
0H
0F
1E
0D
1C
0=
0;
0:
18
07
06
12
01
00
1,
1*
1(
1&
1#
1D
0C
0B
0A
0@
1=
0<
1;
09
08
16
1l
1a
0c
0g
1i
0k
0W
0Y
0[
1m
#468000
0e!
0f!
#480000
1e!
1f!
0+!
0,!
0i!
0@!
1<!
0j!
0-!
0h!
0g!
1|
10!
01!
03!
16!
0"!
0$!
0%!
0'!
1=!
0S!
0R!
0Q!
0M!
0K!
0J!
0H!
1\!
0Y!
0W!
1V!
1D!
0~!
0}!
0|!
1o!
1#"
0$"
0&"
1)"
0s!
0u!
0v!
0x!
1L
0J
0D
1C
1?
1>
0;
1:
19
18
03
02
0/
1.
0,
0+
1)
0(
0'
0$
0#
0E
1D
1B
0>
0=
1;
17
0l
1U
1]
1k
1o
0Q
1[
0a
0m
#492000
0e!
0f!
#504000
1e!
1f!
1i!
0<!
1-!
0|
0}
1.!
00!
15!
06!
17!
1"!
1#!
1$!
1%!
0(!
1*!
1x
1^
1V
0=!
0D!
0E!
1T!
0U!
0V!
0X!
0Z!
0\!
0G!
0L!
0N!
1P!
0?!
1~!
0o!
0p!
1!"
0#"
1("
0)"
1*"
1s!
1t!
1u!
1v!
0y!
1{!
1k!
0k
1a
0]
1Y
0U
1Q
0>!
0L
0I
0G
0D
1A
0?
1=
1<
0;
09
08
06
1/
1,
1+
1'
1%
1"
1?
1>
0=
0<
1;
18
07
15
1Z
1W
0Y
0e
0i
0o
1S
1\
0[
1]
#516000
0e!
0f!
#528000
1e!
1f!
0y
0x
1l!
0k!
#540000
0e!
0f!
#546000
04"
16"
17"
1:"
1;"
1="
11"
1d!
1>!
#552000
1e!
1f!
1A!
1y
0/
0.
0+
0'
1$
0"
1!
0C
0B
0?
0;
19
08
05
0A
1@
1=
1<
1;
09
18
17
1?!
0d!
0V
0\
1R
1X
0Z
0l!
1U
1[
0]
0Q
0W
1Y
0X
0^
1T
1Z
1W
1]
0S
0Y
0[
0Z
1V
1Y
0_
0U
1[
1X
0[
0W
1Z
0Y
1[
#558000
02"
13"
14"
05"
07"
0="
1?"
1@"
1A"
#564000
0e!
0f!
#570000
12"
03"
15"
06"
0:"
0;"
0?"
0@"
0A"
01"
#576000
1e!
1f!
1c!
0A!
1z
1}
0/!
10!
02!
04!
05!
07!
0!!
0$!
1'!
0*!
1E!
1V!
1H!
1I!
1K!
1L!
1M!
0P!
1S!
1B!
1m!
1p!
0""
1#"
0%"
0'"
0("
0*"
0r!
0u!
1x!
0{!
1e
1B
1A
0>
0=
0:
19
08
07
1/
1-
1+
0*
0)
1'
0&
1#
1"
1?
1=
1:
09
16
0T
1\
1S
1Y
0[
1U
1^
0U
0]
1_
#588000
0e!
0f!
#600000
1e!
1f!
1,!
0i!
1b!
0c!
0-!
1h!
1{
1|
0.!
1/!
12!
1!!
0"!
0#!
1)!
0^
0V
0R
0S!
1R!
1O!
0I!
0H!
1G!
1X!
1U!
0T!
1D!
1C!
0~!
1}!
1n!
1o!
0!"
1""
1%"
1r!
0s!
0t!
1z!
1i
0e
0a
1]
0Y
1U
1Q
1D
1C
0=
0;
18
15
0/
1.
0,
1(
1&
0"
0?
1>
0<
19
08
17
06
0X
1^
1W
0Q
0]
0U
0Z
1`
1Y
0_
0\
1[
1a
0^
1]
0`
1_
0a
#612000
0e!
0f!
#624000
1e!
1f!
1+!
1i!
1@!
1j!
0b!
1-!
1g!
0{
1~
1.!
00!
02!
14!
0!!
1"!
1$!
0&!
0'!
1S!
1Q!
0M!
0L!
1J!
1H!
0G!
1Z!
0X!
0V!
1T!
1F!
0C!
1~!
1|!
0n!
1q!
1!"
0#"
0%"
1'"
0r!
1s!
1u!
0w!
0x!
1k
0i
1F
0@
1=
18
07
16
05
10
0-
0+
1*
1)
0(
0&
0$
0#
1@
0=
09
08
06
1c
#636000
0e!
0f!
#648000
1e!
1f!
0@!
1<!
0j!
0|
0}
0~
11!
04!
15!
0"!
0$!
1=!
0J!
0H!
1[!
0Z!
1W!
0F!
0E!
0D!
0o!
0p!
0q!
1$"
0'"
1("
0s!
0u!
1G
0D
0C
0A
0@
18
0'
1#
0!
08
17
0W
0Y
0]
0_
1e
#660000
0e!
0f!
#672000
1e!
1f!
0+!
0,!
0<!
0h!
0g!
0z
1|
0.!
0/!
12!
1"!
1x
0=!
0R!
0Q!
0U!
0W!
0[!
0K!
0O!
1P!
0S!
0?!
0B!
0}!
0|!
0m!
1o!
0!"
0""
1%"
1s!
1k!
0k
1a
1]
1Y
1U
1Q
0>!
0G
0F
0B
1A
1?
0>
1=
1;
18
07
16
00
0.
1,
1&
1$
0#
1!
0A
1@
0?
1>
1<
17
06
1R
0Q
0[
0c
0e
1W
1T
0S
1V
0U
1X
0W
1Z
0Y
1[
#684000
0e!
0f!
#696000
1e!
1f!
0y
0x
1l!
0k!
#708000
0e!
0f!
#714000
02"
13"
05"
16"
1:"
1;"
1?"
1@"
1A"
11"
1d!
1>!
#720000
1e!
1f!
1A!
1y
10
1/
1.
0,
0&
0$
1#
1"
0!
1D
1C
1B
0@
0:
07
15
1A
0>
0<
08
17
16
1?!
0d!
0X
1\
1^
0T
0l!
1W
0[
0]
1_
1S
1Y
1`
0V
0Y
1]
0_
1U
1b
0a
0W
1c
#726000
03"
15"
17"
18"
19"
0:"
0;"
1="
1>"
#732000
0e!
0f!
#738000
12"
06"
07"
08"
09"
0="
0>"
0?"
0@"
0A"
01"
#744000
1e!
1f!
0i!
1c!
0A!
0-!
1{
1~
1.!
02!
05!
1!!
0%!
1&!
1*!
1C!
1D!
1F!
1W!
1G!
1H!
1L!
1O!
0~!
1n!
1q!
1!"
0%"
0("
1r!
0v!
1w!
1{!
1e
1H
0D
0C
0B
0A
1@
1<
1:
19
11
00
1+
0*
0)
1'
1&
0"
1!
1A
0@
1>
0=
0<
0;
0:
09
18
06
0\
0`
0R
1T
1[
0]
1_
1g
1Q
0S
0^
0b
0T
1V
1]
1a
1S
0U
0V
0_
0c
1U
1W
0W
#756000
0e!
0f!
#768000
1e!
1f!
1i!
1b!
0c!
1-!
1z
0{
10!
01!
12!
13!
0!!
1#!
0&!
1(!
0Z
1S!
1N!
0L!
1I!
0G!
1Y!
1X!
0W!
1V!
0C!
1B!
1~!
1m!
0n!
1#"
0$"
1%"
1&"
0r!
1t!
0w!
1y!
1i
0e
0a
0]
1Y
0U
0Q
1J
1G
1F
1E
1@
0>
1=
1<
1;
19
08
14
01
10
0/
1,
0+
1)
0'
0&
0%
1$
0#
1"
0!
1D
0A
1?
1>
0=
0<
0;
18
16
05
0[
1W
1a
1c
1e
1k
1U
0Y
1_
#780000
0e!
0f!
#792000
1e!
1f!
1+!
0i!
1@!
1j!
0b!
0-!
1g!
0z
1{
0|
1}
0~
0.!
1/!
11!
14!
15!
1!!
1$!
0(!
1l
0S!
1Q!
0N!
1J!
1G!
1[!
1Z!
1W!
1U!
0T!
0F!
1E!
0D!
1C!
0B!
0~!
1|!
0m!
1n!
0o!
1p!
0q!
0!"
1""
1$"
1'"
1("
1r!
1u!
0y!
0k
0i
1L
1K
0H
0G
0F
1C
1A
0?
1;
1:
09
08
06
04
12
11
00
0,
1(
1%
0$
1#
1!
0C
0A
0@
0>
1=
1<
18
15
1n
0U
0c
0e
0g
1o
1Q
0S
0W
1p
0o
1q
#804000
0e!
0f!
